\relax 
\providecommand\hyper@newdestlabel[2]{}
\providecommand*\new@tpo@label[2]{}
\catcode `"\active 
\providecommand\HyperFirstAtBeginDocument{\AtBeginDocument}
\HyperFirstAtBeginDocument{\ifx\hyper@anchor\@undefined
\global\let\oldcontentsline\contentsline
\gdef\contentsline#1#2#3#4{\oldcontentsline{#1}{#2}{#3}}
\global\let\oldnewlabel\newlabel
\gdef\newlabel#1#2{\newlabelxx{#1}#2}
\gdef\newlabelxx#1#2#3#4#5#6{\oldnewlabel{#1}{{#2}{#3}}}
\AtEndDocument{\ifx\hyper@anchor\@undefined
\let\contentsline\oldcontentsline
\let\newlabel\oldnewlabel
\fi}
\fi}
\global\let\hyper@last\relax 
\gdef\HyperFirstAtBeginDocument#1{#1}
\providecommand\HyField@AuxAddToFields[1]{}
\providecommand\HyField@AuxAddToCoFields[2]{}
\select@language{ngerman}
\@writefile{toc}{\select@language{ngerman}}
\@writefile{lof}{\select@language{ngerman}}
\@writefile{lot}{\select@language{ngerman}}
\select@language{english}
\@writefile{toc}{\select@language{english}}
\@writefile{lof}{\select@language{english}}
\@writefile{lot}{\select@language{english}}
\select@language{english}
\@writefile{toc}{\select@language{english}}
\@writefile{lof}{\select@language{english}}
\@writefile{lot}{\select@language{english}}
\@writefile{toc}{\contentsline {section}{\numberline {1}Einf\IeC {\"u}hrung}{1}{section.1}}
\@writefile{toc}{\contentsline {section}{\numberline {2}Aufbau und Notation des W\IeC {\"u}rfels}{1}{section.2}}
\@writefile{toc}{\contentsline {subsection}{\numberline {2.1}Aufbau}{1}{subsection.2.1}}
\@writefile{toc}{\contentsline {subsection}{\numberline {2.2}Tausch- bzw. Drehm\IeC {\"o}glichkeiten des Puzzles}{2}{subsection.2.2}}
\@writefile{toc}{\contentsline {section}{\numberline {3}Beginn der Arbeit}{2}{section.3}}
\@writefile{toc}{\contentsline {subsection}{\numberline {3.1}Grundlagen: Definition einer Gruppe}{2}{subsection.3.1}}
\@writefile{toc}{\contentsline {subsection}{\numberline {3.2}Permutationen}{4}{subsection.3.2}}
\@writefile{toc}{\contentsline {subsection}{\numberline {3.3}Der Rubik's Cube als Gruppe}{10}{subsection.3.3}}
\@writefile{toc}{\contentsline {subsection}{\numberline {3.4}Permutationen des Rubik's Cubes}{10}{subsection.3.4}}
\@writefile{toc}{\contentsline {subsection}{\numberline {3.5}Parit\IeC {\"a}t}{11}{subsection.3.5}}
\@writefile{toc}{\contentsline {subsection}{\numberline {3.6}Subgruppen/Untergruppen}{11}{subsection.3.6}}
\@writefile{toc}{\contentsline {subsubsection}{\numberline {3.6.1}Motivation f\IeC {\"u}r Untergruppen}{11}{subsubsection.3.6.1}}
\@writefile{toc}{\contentsline {subsubsection}{\numberline {3.6.2}Beispiele von Erzeugern von Untergruppen von $R$}{12}{subsubsection.3.6.2}}
\@writefile{toc}{\contentsline {section}{\numberline {4}Anzahl verschiedener Anordnungen des W\IeC {\"u}rfels}{13}{section.4}}
