\relax 
\providecommand\hyper@newdestlabel[2]{}
\providecommand\HyperFirstAtBeginDocument{\AtBeginDocument}
\HyperFirstAtBeginDocument{\ifx\hyper@anchor\@undefined
\global\let\oldcontentsline\contentsline
\gdef\contentsline#1#2#3#4{\oldcontentsline{#1}{#2}{#3}}
\global\let\oldnewlabel\newlabel
\gdef\newlabel#1#2{\newlabelxx{#1}#2}
\gdef\newlabelxx#1#2#3#4#5#6{\oldnewlabel{#1}{{#2}{#3}}}
\AtEndDocument{\ifx\hyper@anchor\@undefined
\let\contentsline\oldcontentsline
\let\newlabel\oldnewlabel
\fi}
\fi}
\global\let\hyper@last\relax 
\gdef\HyperFirstAtBeginDocument#1{#1}
\providecommand\HyField@AuxAddToFields[1]{}
\providecommand\HyField@AuxAddToCoFields[2]{}
\catcode `"\active 
\babel@aux{german}{}
\@writefile{toc}{\contentsline {section}{\numberline {1}Einf\IeC {\"u}hrung}{2}{section.1}\protected@file@percent }
\@writefile{toc}{\contentsline {section}{\numberline {2}Aufbau und Notation des W\IeC {\"u}rfels}{2}{section.2}\protected@file@percent }
\@writefile{toc}{\contentsline {subsection}{\numberline {2.1}Aufbau}{2}{subsection.2.1}\protected@file@percent }
\citation{rub1}
\citation{rub1}
\citation{rub1}
\citation{rub1}
\@writefile{lof}{\contentsline {figure}{\numberline {1}{\ignorespaces Achsenkreuz mit 6 Mittelsteinen\cite  {rub1}}}{3}{figure.1}\protected@file@percent }
\@writefile{lof}{\contentsline {figure}{\numberline {2}{\ignorespaces 12 Kantensteine\cite  {rub1}}}{3}{figure.2}\protected@file@percent }
\@writefile{lof}{\contentsline {figure}{\numberline {3}{\ignorespaces 8 Ecksteine\cite  {rub1}}}{3}{figure.3}\protected@file@percent }
\@writefile{lof}{\contentsline {figure}{\numberline {4}{\ignorespaces ge\IeC {\"o}ffneter Zauberw\IeC {\"u}rfel\cite  {rub1}}}{4}{figure.4}\protected@file@percent }
\@writefile{toc}{\contentsline {subsection}{\numberline {2.2}Anzahl der m\IeC {\"o}glichen Stellungen des 3x3x3 Rubik's Cubes}{4}{subsection.2.2}\protected@file@percent }
\@writefile{toc}{\contentsline {section}{\numberline {3}Der Rubik's Cube als Gruppe}{6}{section.3}\protected@file@percent }
\@writefile{toc}{\contentsline {subsection}{\numberline {3.1}Gruppe allgemein}{6}{subsection.3.1}\protected@file@percent }
\@writefile{toc}{\contentsline {subsection}{\numberline {3.2}Die Rubik's Gruppe}{6}{subsection.3.2}\protected@file@percent }
\@writefile{toc}{\contentsline {section}{\numberline {4}Untergruppen}{7}{section.4}\protected@file@percent }
\@writefile{toc}{\contentsline {subsection}{\numberline {4.1}Untergruppen allgemein}{7}{subsection.4.1}\protected@file@percent }
\@writefile{toc}{\contentsline {subsection}{\numberline {4.2}Untergruppen am Rubik's Cube}{7}{subsection.4.2}\protected@file@percent }
\@writefile{lof}{\contentsline {figure}{\numberline {5}{\ignorespaces $R$ = Rubik's Gruppe, $S = \{F\}$, $H = \{F,F^2,F^3,F^4\}$}}{7}{figure.5}\protected@file@percent }
\@writefile{toc}{\contentsline {section}{\numberline {5}Satz von Lagrange}{9}{section.5}\protected@file@percent }
\citation{paper}
\@writefile{lof}{\contentsline {figure}{\numberline {6}{\ignorespaces }}{10}{figure.6}\protected@file@percent }
\@writefile{lof}{\contentsline {figure}{\numberline {7}{\ignorespaces a\cite  {paper}}}{11}{figure.7}\protected@file@percent }
\@writefile{toc}{\contentsline {section}{\numberline {6}Cayley Graphs}{11}{section.6}\protected@file@percent }
\citation{paper}
\@writefile{lof}{\contentsline {figure}{\numberline {8}{\ignorespaces }}{12}{figure.8}\protected@file@percent }
\@writefile{lof}{\contentsline {figure}{\numberline {9}{\ignorespaces }}{12}{figure.9}\protected@file@percent }
\@writefile{lof}{\contentsline {figure}{\numberline {10}{\ignorespaces Cayley Graph \cite  {paper}}}{12}{figure.10}\protected@file@percent }
\citation{paper}
\@writefile{lof}{\contentsline {figure}{\numberline {11}{\ignorespaces Cayley Graph \cite  {paper}}}{13}{figure.11}\protected@file@percent }
\@writefile{toc}{\contentsline {section}{\numberline {7}Makros}{13}{section.7}\protected@file@percent }
\@writefile{toc}{\contentsline {subsection}{\numberline {7.1}Kommutatoren}{13}{subsection.7.1}\protected@file@percent }
\@writefile{toc}{\contentsline {subsection}{\numberline {7.2}Konjugation}{14}{subsection.7.2}\protected@file@percent }
\@writefile{toc}{\contentsline {section}{\numberline {8}Beispiel}{14}{section.8}\protected@file@percent }
\@writefile{lof}{\contentsline {figure}{\numberline {12}{\ignorespaces }}{15}{figure.12}\protected@file@percent }
\@writefile{lof}{\contentsline {figure}{\numberline {13}{\ignorespaces }}{15}{figure.13}\protected@file@percent }
\citation{god1}
\citation{god2}
\citation{god3}
\citation{rub1}
\citation{rub2}
\bibdata{quellen}
\bibcite{god1}{1}
\@writefile{lof}{\contentsline {figure}{\numberline {14}{\ignorespaces }}{16}{figure.14}\protected@file@percent }
\@writefile{lof}{\contentsline {figure}{\numberline {15}{\ignorespaces }}{16}{figure.15}\protected@file@percent }
\bibcite{god2}{2}
\bibcite{god3}{3}
\bibcite{paper}{4}
\bibcite{rub2}{5}
\bibcite{rub1}{6}
\bibstyle{plain}
\@writefile{toc}{\contentsline {section}{\numberline {9}Fazit}{17}{section.9}\protected@file@percent }
