\begin{thebibliography}{1}

\bibitem{god1}
God's number.
\newblock \url{https://ruwix.com/the-rubiks-cube/gods-number/}.
\newblock Besucht: 12.12.2019.

\bibitem{god2}
God's number.
\newblock \url{https://www.cube20.org/}.
\newblock Besucht: 12.12.2019.

\bibitem{god3}
Gottes algorithmus.
\newblock \url{https://de.wikipedia.org/wiki/Gottes_Algorithmus}.
\newblock Besucht: 12.12.2019.

\bibitem{paper}
The mathematics of the rubik's cube.
\newblock \url{https://web.mit.edu/sp.268/www/rubik.pdf}.
\newblock Besucht: 12.12.2019.

\bibitem{rub2}
The rubik's cube.
\newblock
  \url{https://sites.google.com/site/richardsonsem2grouptheory/home/the-rubik-s-cube}.
\newblock Besucht: 12.12.2019.

\bibitem{rub1}
Zauberwürfel.
\newblock \url{https://de.wikipedia.org/wiki/Zauberw%C3%BCrfel}.
\newblock Besucht: 12.12.2019.

\end{thebibliography}
